{  "jsonrpc": "2.0",  "result": {    "total_items": 2097,    "items": [      {        "support_info": [          {            "is_tip": true,            "balance_delta": "4.0",            "claim_name": "How-I-found-LBRY-and-Why-I-Was-Attracted-to-LBRY-Platform",            "amount": "4.0",            "address": "bLxYniw7pTTox7dwvAVqevEoT6w3Km2BAB",            "claim_id": "93dc22711db67e9868607e46d0894dbb90c09c54",            "nout": 18          }        ],        "fee": "0.0",        "update_info": [],        "timestamp": 1580352069,        "purchase_info": [],        "abandon_info": [],        "txid": "8b4105dcad9fc243787c4ce0a156e4dce5cd044102de632e5f7db558f72d2da2",        "claim_info": [],        "confirmations": 30,        "value": "4.0",        "date": "2020-01-30 10:41"      }    ],    "total_pages": 2097,    "page": 1,    "page_size": 1  }}{  "jsonrpc": "2.0",  "result": {    "total_items": 2097,    "items": [      {        "support_info": [          {            "is_tip": true,            "balance_delta": "4.0",            "claim_name": "How-I-found-LBRY-and-Why-I-Was-Attracted-to-LBRY-Platform",            "amount": "4.0",            "address": "bLxYniw7pTTox7dwvAVqevEoT6w3Km2BAB",            "claim_id": "93dc22711db67e9868607e46d0894dbb90c09c54",            "nout": 24          }        ],        "fee": "0.0",        "update_info": [],        "timestamp": 1580349941,        "purchase_info": [],        "abandon_info": [],        "txid": "e04bccafaab78b0059485b4a073e9e88edd87549d78efec9c70caca3207c4e3d",        "claim_info": [],        "confirmations": 41,        "value": "4.0",        "date": "2020-01-30 10:05"      }    ],    "total_pages": 2097,    "page": 2,    "page_size": 1  }}{  "jsonrpc": "2.0",  "result": {    "total_items": 2097,    "items": [      {        "support_info": [],        "fee": "-0.036107",        "update_info": [],        "timestamp": 1580349526,        "purchase_info": [],        "abandon_info": [],        "txid": "a3933b5bc65d3c8f377ea38d1add687c1100452ecd9c9ef1ee44fb9d950c915e",        "claim_info": [          {            "balance_delta": "-0.1",            "claim_name": "202001251749-final",            "amount": "0.1",            "address": "bMyf7j1L9EGWMo97k4UDHdZHegGs1MYCv4",            "claim_id": "3b25b3c1674b4b4f83a1fc8a675dc1555529826c",            "nout": 0          }        ],        "confirmations": 42,        "value": "0.0",        "date": "2020-01-30 09:58"      }    ],    "total_pages": 2097,    "page": 3,    "page_size": 1  }}{  "jsonrpc": "2.0",  "result": {    "total_items": 2097,    "items": [      {        "support_info": [],        "fee": "0.0",        "update_info": [],        "timestamp": 1580345103,        "purchase_info": [],        "abandon_info": [],        "txid": "b4d5489769a6c916956ad6b9764e398439298b810eee6ca56571fb52794126d3",        "claim_info": [],        "confirmations": 72,        "value": "3.0",        "date": "2020-01-30 08:45"      }    ],    "total_pages": 2097,    "page": 4,    "page_size": 1  }}{  "jsonrpc": "2.0",  "result": {    "total_items": 2097,    "items": [      {        "support_info": [          {            "is_tip": true,            "balance_delta": "5.0",            "claim_name": "How-I-found-LBRY-and-Why-I-Was-Attracted-to-LBRY-Platform",            "amount": "5.0",            "address": "bLxYniw7pTTox7dwvAVqevEoT6w3Km2BAB",            "claim_id": "93dc22711db67e9868607e46d0894dbb90c09c54",            "nout": 16          }        ],        "fee": "0.0",        "update_info": [],        "timestamp": 1580338137,        "purchase_info": [],        "abandon_info": [],        "txid": "590bc7d6de06bf5f162f0c409f69f2ab2c3a7b762748020c8163eb91cc0f1a95",        "claim_info": [],        "confirmations": 117,        "value": "5.0",        "date": "2020-01-30 06:48"      }    ],    "total_pages": 2097,    "page": 5,    "page_size": 1  }}{  "jsonrpc": "2.0",  "result": {    "total_items": 2097,    "items": [      {        "support_info": [          {            "is_tip": false,            "balance_delta": "-3.0",            "claim_name": "Coronavirus-2019-nCoV_Update",            "amount": "3.0",            "address": "bPRWgSi2PKTG8DqH7jsC5UU5o8X5RWZmNy",            "claim_id": "97383f45372bb1e37f46c37db1a2105d7d9a10fe",            "nout": 0          }        ],        "fee": "-0.0002985",        "update_info": [],        "timestamp": 1580338095,        "purchase_info": [],        "abandon_info": [],        "txid": "8d23d512fcca9ae63e6119386acc88147f20a9b18bb3483fe1a7438b787f3fa8",        "claim_info": [],        "confirmations": 118,        "value": "0.0",        "date": "2020-01-30 06:48"      }    ],    "total_pages": 2097,    "page": 6,    "page_size": 1  }}{  "jsonrpc": "2.0",  "result": {    "total_items": 2097,    "items": [      {        "support_info": [],        "fee": "-0.000107",        "update_info": [],        "timestamp": 1580338095,        "purchase_info": [],        "abandon_info": [          {            "balance_delta": "3.0",            "claim_name": "Coronavirus-2019-nCoV_Update",            "amount": "3.0",            "address": "bLmC7m4BjGrsL2E9x8Sve2giew8HKcafZY",            "claim_id": "97383f45372bb1e37f46c37db1a2105d7d9a10fe",            "nout": 289          }        ],        "txid": "00d85c3121f44c332abf10c82cd8feb45194c435b19abca6762b154c7683735e",        "claim_info": [],        "confirmations": 118,        "value": "0.0",        "date": "2020-01-30 06:48"      }    ],    "total_pages": 2097,    "page": 7,    "page_size": 1  }}{  "jsonrpc": "2.0",  "result": {    "total_items": 2097,    "items": [      {        "support_info": [          {            "is_tip": true,            "balance_delta": "2.0",            "claim_name": "How-I-found-LBRY-and-Why-I-Was-Attracted-to-LBRY-Platform",            "amount": "2.0",            "address": "bLxYniw7pTTox7dwvAVqevEoT6w3Km2BAB",            "claim_id": "93dc22711db67e9868607e46d0894dbb90c09c54",            "nout": 12          }        ],        "fee": "0.0",        "update_info": [],        "timestamp": 1580337094,        "purchase_info": [],        "abandon_info": [],        "txid": "853f0fc798ee7ec0671e799e91deaaa2d91ed9f3549be2f48fa754099fd78a1a",        "claim_info": [],        "confirmations": 124,        "value": "2.0",        "date": "2020-01-30 06:31"      }    ],    "total_pages": 2097,    "page": 8,    "page_size": 1  }}{  "jsonrpc": "2.0",  "result": {    "total_items": 2097,    "items": [      {        "support_info": [          {            "is_tip": true,            "balance_delta": "3.0",            "claim_name": "plotting-lbry-cryptocurrency-lbc-tips",            "amount": "3.0",            "address": "bDyZqrP3KoUVjotbdiRsPgkXpqHvASLPrT",            "claim_id": "86dd35d13c28b8f04b714e17413726e222c77e7e",            "nout": 26          }        ],        "fee": "0.0",        "update_info": [],        "timestamp": 1580330926,        "purchase_info": [],        "abandon_info": [],        "txid": "ee231d385e39252bc3e57f52d9e78c0aa7a7c3600604c4c1c7972caab9d03fc6",        "claim_info": [],        "confirmations": 160,        "value": "3.0",        "date": "2020-01-30 04:48"      }    ],    "total_pages": 2097,    "page": 9,    "page_size": 1  }}{  "jsonrpc": "2.0",  "result": {    "total_items": 2097,    "items": [      {        "support_info": [          {            "is_tip": true,            "balance_delta": "500.0",            "claim_name": "@PhilippineRetirement",            "amount": "500.0",            "address": "bE1dHht38QaJwSeLv6zxXvDEJKLjqxucSy",            "claim_id": "2beebf6e391b2bd9d5386aa269b33985afd18d89",            "nout": 0          }        ],        "fee": "0.0",        "update_info": [],        "timestamp": 1580325666,        "purchase_info": [],        "abandon_info": [],        "txid": "1129666a9661a8008a7fdc3b86107b4d23b245942761d688d2ef7b50a28607cf",        "claim_info": [],        "confirmations": 194,        "value": "500.0",        "date": "2020-01-30 03:21"      }    ],    "total_pages": 2097,    "page": 10,    "page_size": 1  }}{  "jsonrpc": "2.0",  "result": {    "total_items": 2097,    "items": [      {        "support_info": [          {            "is_tip": true,            "balance_delta": "1.0",            "claim_name": "Novel-Coronavirus-Jan27-2019-nCoV-in-the-US",            "amount": "1.0",            "address": "bFzZtNxzP92XaAiC5tgJPbnPibuAhzSQ2K",            "claim_id": "039ffef4e8537b600aa4d246dc92f5fd8907f033",            "nout": 2          }        ],        "fee": "0.0",        "update_info": [],        "timestamp": 1580321060,        "purchase_info": [],        "abandon_info": [],        "txid": "fde5c7dac45bcb9a73bd8cfa0ac450ee029062bd59e015d67105a0731ab6b2c1",        "claim_info": [],        "confirmations": 221,        "value": "1.0",        "date": "2020-01-30 02:04"      }    ],    "total_pages": 2097,    "page": 11,    "page_size": 1  }}{  "jsonrpc": "2.0",  "result": {    "total_items": 2097,    "items": [      {        "support_info": [          {            "is_tip": true,            "balance_delta": "5.0",            "claim_name": "Novel-Coronavirus-Jan27-2019-nCoV-in-the-US",            "amount": "5.0",            "address": "bFzZtNxzP92XaAiC5tgJPbnPibuAhzSQ2K",            "claim_id": "039ffef4e8537b600aa4d246dc92f5fd8907f033",            "nout": 5          }        ],        "fee": "0.0",        "update_info": [],        "timestamp": 1580316995,        "purchase_info": [],        "abandon_info": [],        "txid": "3c718bb0ac240437fba2892ec3c5954b03eb02b24c41087673ad7b11723c11d0",        "claim_info": [],        "confirmations": 252,        "value": "5.0",        "date": "2020-01-30 00:56"      }    ],    "total_pages": 2097,    "page": 12,    "page_size": 1  }}{  "jsonrpc": "2.0",  "result": {    "total_items": 2097,    "items": [      {        "support_info": [          {            "is_tip": true,            "balance_delta": "1.0",            "claim_name": "Coronavirus-2019-nCoV_Update",            "amount": "1.0",            "address": "bLmC7m4BjGrsL2E9x8Sve2giew8HKcafZY",            "claim_id": "97383f45372bb1e37f46c37db1a2105d7d9a10fe",            "nout": 42          }        ],        "fee": "0.0",        "update_info": [],        "timestamp": 1580314726,        "purchase_info": [],        "abandon_info": [],        "txid": "9751486e3ea8805683a94f61084616914ddb89bb86831f579afcea789a7dc586",        "claim_info": [],        "confirmations": 263,        "value": "1.0",        "date": "2020-01-30 00:18"      }    ],    "total_pages": 2097,    "page": 13,    "page_size": 1  }}{  "jsonrpc": "2.0",  "result": {    "total_items": 2097,    "items": [      {        "support_info": [          {            "is_tip": true,            "balance_delta": "4.0",            "claim_name": "How-I-found-LBRY-and-Why-I-Was-Attracted-to-LBRY-Platform",            "amount": "4.0",            "address": "bLxYniw7pTTox7dwvAVqevEoT6w3Km2BAB",            "claim_id": "93dc22711db67e9868607e46d0894dbb90c09c54",            "nout": 9          }        ],        "fee": "0.0",        "update_info": [],        "timestamp": 1580306456,        "purchase_info": [],        "abandon_info": [],        "txid": "2abe727f09aa2c3e11cba2dfb0b6225db9aa3fb2f3c94baba2464a857d38b184",        "claim_info": [],        "confirmations": 308,        "value": "4.0",        "date": "2020-01-29 22:00"      }    ],    "total_pages": 2097,    "page": 14,    "page_size": 1  }}{  "jsonrpc": "2.0",  "result": {    "total_items": 2097,    "items": [      {        "support_info": [          {            "is_tip": true,            "balance_delta": "3.0",            "claim_name": "plotting-lbry-cryptocurrency-lbc-tips",            "amount": "3.0",            "address": "bDyZqrP3KoUVjotbdiRsPgkXpqHvASLPrT",            "claim_id": "86dd35d13c28b8f04b714e17413726e222c77e7e",            "nout": 53          },          {            "is_tip": true,            "balance_delta": "3.0",            "claim_name": "Coronavirus-2019-nCoV_Update",            "amount": "3.0",            "address": "bLmC7m4BjGrsL2E9x8Sve2giew8HKcafZY",            "claim_id": "97383f45372bb1e37f46c37db1a2105d7d9a10fe",            "nout": 172          }        ],        "fee": "0.0",        "update_info": [],        "timestamp": 1580300057,        "purchase_info": [],        "abandon_info": [],        "txid": "4753c0ed27ae901d88fff5e55335b7a7f9df0582595d42fe8afc6a1bd693c43c",        "claim_info": [],        "confirmations": 352,        "value": "6.0",        "date": "2020-01-29 20:14"      }    ],    "total_pages": 2097,    "page": 15,    "page_size": 1  }}{  "jsonrpc": "2.0",  "result": {    "total_items": 2097,    "items": [      {        "support_info": [          {            "is_tip": true,            "balance_delta": "3.0",            "claim_name": "Novel-Coronavirus-Jan27-2019-nCoV-in-the-US",            "amount": "3.0",            "address": "bFzZtNxzP92XaAiC5tgJPbnPibuAhzSQ2K",            "claim_id": "039ffef4e8537b600aa4d246dc92f5fd8907f033",            "nout": 25          }        ],        "fee": "0.0",        "update_info": [],        "timestamp": 1580300057,        "purchase_info": [],        "abandon_info": [],        "txid": "a2749f04ce33a95f5697b796b61a7e82c43e6a0d2f2b572b082e2bb1cadcaaa0",        "claim_info": [],        "confirmations": 352,        "value": "3.0",        "date": "2020-01-29 20:14"      }    ],    "total_pages": 2097,    "page": 16,    "page_size": 1  }}{  "jsonrpc": "2.0",  "result": {    "total_items": 2097,    "items": [      {        "support_info": [          {            "is_tip": true,            "balance_delta": "1.0",            "claim_name": "Coronavirus-2019-nCoV_Update",            "amount": "1.0",            "address": "bLmC7m4BjGrsL2E9x8Sve2giew8HKcafZY",            "claim_id": "97383f45372bb1e37f46c37db1a2105d7d9a10fe",            "nout": 330          }        ],        "fee": "0.0",        "update_info": [],        "timestamp": 1580289886,        "purchase_info": [],        "abandon_info": [],        "txid": "24d511f822ea0312a5455c97b7171eaf623520397745fb2a5bd4870c927e2394",        "claim_info": [],        "confirmations": 411,        "value": "1.0",        "date": "2020-01-29 17:24"      }    ],    "total_pages": 2097,    "page": 17,    "page_size": 1  }}{  "jsonrpc": "2.0",  "result": {    "total_items": 2097,    "items": [      {        "support_info": [          {            "is_tip": true,            "balance_delta": "1.0",            "claim_name": "Coronavirus-2019-nCoV_Update",            "amount": "1.0",            "address": "bLmC7m4BjGrsL2E9x8Sve2giew8HKcafZY",            "claim_id": "97383f45372bb1e37f46c37db1a2105d7d9a10fe",            "nout": 311          }        ],        "fee": "0.0",        "update_info": [],        "timestamp": 1580288981,        "purchase_info": [],        "abandon_info": [],        "txid": "657b40dd250d12ba12528885ad56d72b676ebd106d3fb87f68d98a826066b1a0",        "claim_info": [],        "confirmations": 418,        "value": "1.0",        "date": "2020-01-29 17:09"      }    ],    "total_pages": 2097,    "page": 18,    "page_size": 1  }}{  "jsonrpc": "2.0",  "result": {    "total_items": 2097,    "items": [      {        "support_info": [          {            "is_tip": true,            "balance_delta": "5.0",            "claim_name": "Coronavirus-2019-nCoV_Update",            "amount": "5.0",            "address": "bLmC7m4BjGrsL2E9x8Sve2giew8HKcafZY",            "claim_id": "97383f45372bb1e37f46c37db1a2105d7d9a10fe",            "nout": 304          }        ],        "fee": "0.0",        "update_info": [],        "timestamp": 1580288698,        "purchase_info": [],        "abandon_info": [],        "txid": "f1349d7d893ac7241c44922d8ac686a9865c3982966e142da1addf0c68cba844",        "claim_info": [],        "confirmations": 421,        "value": "5.0",        "date": "2020-01-29 17:04"      }    ],    "total_pages": 2097,    "page": 19,    "page_size": 1  }}